<svg width="128" height="128" xmlns="http://www.w3.org/2000/svg">

 <g>
  <title>background</title>
  <rect fill="none" id="canvas_background" height="130" width="130" y="-1" x="-1"/>
 </g>
 <g>
  <title>Layer 1</title>
  <path stroke="#000000" stroke-opacity="0" id="svg_2" fill="#ffe64c" d="m15.2,39.121914c0.1,0 0.2,0.1 0.3,0.2c2.5,1.8 6.2,3.3 10.7,4.4c3.5,0.8 7.5,1.4 11.8,1.6l0.2,0l0,0l0.3,0l0.1,0l0.2,0l0.2,0l0,0l0.3,0l0.2,0l0,0l0.2,0l0,0l0,0l0.4,0l0,0l0.1,0l0.2,0l0,0l0,0l0.3,0l0,0l0.1,0l0.3,0l0.3,0l0.1,0l0,0l0.3,0l0,0l0,0l0.2,0l0.1,0l0,0l0.4,0l0,0l0,0l0.2,0l0,0l0.2,0l0.3,0l0,0l0.2,0l0.2,0l0.1,0l0.3,0l0,0l0.2,0c4.3,-0.2 8.3,-0.7 11.8,-1.6c4.5,-1.1 8.2,-2.6 10.7,-4.4c0.1,-0.1 0.2,-0.1 0.2,-0.1c2,-1.4 3.1,-3 3.1,-4.7c0,-2.7 -3,-5.2 -7.9,-7.2c-5.4,-2.2 -12.9,-3.6 -21.3,-3.6c-8.4,0 -15.9,1.4 -21.3,3.6c-4.9,2 -7.9,4.6 -7.9,7.2c0.5,1.6 1.6,3.1 3.6,4.6zm67.3,31.2l0,-7.8c-0.9,0.2 -1.8,0.6 -2.5,1.1c-1.3,0.9 -1.9,2 -1.9,3.4c0,0.7 0.1,1.2 0.4,1.6c0.3,0.4 0.8,0.8 1.6,1c0.8,0.3 1.4,0.4 1.9,0.5c0,0.1 0.2,0.2 0.5,0.2zm4,5.3l0,8.6c1.1,-0.2 2.1,-0.5 2.9,-1.1c1.3,-0.8 1.9,-1.9 1.9,-3.4c0,-1.5 -0.6,-2.5 -1.7,-3.2c-0.7,-0.3 -1.8,-0.6 -3.1,-0.9zm-4,-21c0,-1.1 0.9,-2 2,-2c1.1,0 2,0.9 2,2l0,3.1c2.8,0.1 5.2,0.7 7.1,1.6c1.2,0.6 1.8,1.3 1.8,2.1c0,1.7 -0.8,2.5 -2.3,2.5c-0.4,0 -1.4,-0.3 -3.2,-0.8c-1.2,-0.4 -2.3,-0.6 -3.5,-0.7l0,8.6c3,0.5 5.3,1.3 7.1,2.5c2,1.3 3,3.4 3,6.2c0,3 -1.1,5.3 -3.4,7c-1.8,1.3 -4,2.1 -6.6,2.4l0,3.1c0,1.1 -0.9,2 -2,2c-1.1,0 -2,-0.9 -2,-2l0,-3.1c-2.1,-0.1 -4.2,-0.5 -6.2,-1.2c-2.5,-0.8 -3.8,-1.8 -3.8,-2.8c0,-1.9 0.8,-2.8 2.3,-2.8c0.4,0 1.6,0.3 3.8,1c1.4,0.4 2.6,0.7 3.9,0.9l0,-9.3c-0.6,-0.1 -1.2,-0.2 -1.7,-0.3c-0.8,-0.2 -1.8,-0.4 -2.9,-0.9c-1.1,-0.4 -2,-0.9 -2.6,-1.4c-0.6,-0.5 -1.2,-1.2 -1.7,-2.1c-0.5,-0.9 -0.7,-1.9 -0.7,-3.1c0,-2.7 1.2,-5 3.6,-6.8c1.8,-1.3 3.8,-2.2 6,-2.5l0,-3.2zm19.1,1.6c-4.4,-4.4 -10.4,-7.1 -17.1,-7.1c-6.7,0 -12.8,2.7 -17.1,7.1c-4.4,4.4 -7.1,10.4 -7.1,17.1c0,6.7 2.7,12.8 7.1,17.1c4.4,4.4 10.4,7.1 17.1,7.1c6.7,0 12.8,-2.7 17.1,-7.1c4.4,-4.4 7.1,-10.4 7.1,-17.1c0,-6.6 -2.7,-12.7 -7.1,-17.1zm-17.1,-11.1c7.8,0 14.9,3.2 20,8.3c5.1,5.1 8.3,12.2 8.3,20s-3.2,14.9 -8.3,20c-5.1,5.1 -12.2,8.3 -20,8.3c-7.8,0 -14.9,-3.2 -20,-8.3c-5.1,-5.1 -8.3,-12.2 -8.3,-20s3.2,-14.9 8.3,-20c5.1,-5.1 12.2,-8.3 20,-8.3zm-31.6,12.1c1.7,-3.3 3.9,-6.3 6.5,-8.9c0.7,-0.7 1.4,-1.3 2.1,-1.9c-1.3,0.4 -2.7,0.8 -4.2,1.2l-0.5,0.1l-0.5,0.1c-3.7,0.8 -7.8,1.3 -12.1,1.5l0,0l-0.4,0l0,0l-0.3,0l-0.1,0l-0.2,0l-0.1,0l-0.1,0l0,0l-0.2,0l-0.3,0l0,0l0,0l-0.2,0l0,0l0,0l-0.2,0l-0.1,0l-0.1,0l-0.1,0l-0.1,0l-0.3,0l-0.3,0l-0.1,0l-0.1,0l-0.3,0l0,0l-0.3,0l-0.2,0l-0.1,0l-0.3,0l0,0c-5.2,-0.1 -10.1,-0.7 -14.4,-1.8c-4.3,-1 -8,-2.5 -10.9,-4.2c-0.6,0.6 -1.2,1.1 -1.5,1.7c-0.5,0.7 -0.7,1.5 -0.7,2.2c0,1.6 1.1,3.2 3.1,4.7c0.1,0 0.2,0.1 0.3,0.2c2.5,1.8 6.2,3.3 10.7,4.4c3.5,0.8 7.5,1.4 11.8,1.6l0.2,0l0,0l0.3,0l0.1,0l0.2,0l0.2,0l0,0l0.3,0l0.2,0l0,0l0.2,0l0,0l0,0l0.4,0l0,0l0.1,0l0.2,0l0,0l0,0l0.3,0l0,0l0.1,0l0.3,0l0.1,0l0.1,0l0.1,0l0.1,0l0.1,0l0,0l0.1,0l0.1,0l0.1,0l0.1,0l0,0l0.1,0l0,0l0.1,0l0,0l0.1,0l0.1,0l0,0l0.1,0l0.1,0l0,0l0.1,0l0,0l0.1,0l0,0l0.1,0l0,0l0.1,0l0,0l0.1,0l0,0l0.1,0l0,0l0.1,0l0,0l0.1,0l0,0l0.1,0l0,0l0.1,0l0,0l0.1,0l0.1,0l0,0l0.1,0l0.1,0l0,0l0.1,0l0,0l0.1,0l0,0l0.1,0l0,0l0.1,0l0,0l0.1,0l0,0l0.1,0l0,0l0.1,0l0.1,0l0.1,0l0,0l0.1,0l0,0l0.1,0l0,0l0.1,0l0,0l0.1,0l0,0l0.1,0l0,0l0.1,0l0,0l0.1,0l0,0l0.1,0l0,0l0.1,0l0,0l0.1,0l0,0l0.1,0l0,0l0.1,0l0,0l0.1,0l0,0l0.1,0l0,0l0.1,0l0,0l0.1,0l0,0l0.1,0l0,0l0.1,0l0,0l0.1,0l0,0l0.1,0l0,0l0.1,0l0,0l0.1,0l0,0l0.1,0l0,0l0.1,0l0,0l0.1,0l0,0l0.1,0l0,0l0.1,0l0,0l0.1,0l0,0l0,0l0,0l0,0l0.1,0l0,0l0.1,0l0,0l0.1,0l0,0l0.1,0l0,0l0.1,0l0,0l0,0l0.1,0l0,0l0.1,0l0,0l0.1,0l0,0l0.1,0l0,0l0,0l0,0l0,0l0.1,0l0,0l0.1,0l0,0l0.1,0l0,0l0.1,0l0,0l0,0l0,0l0,0l0.1,0l0,0l0.1,0l0,0l0.1,0l0,0l0.1,0l0,0l0,0l0,0l0,0l0.1,0l0,0l0.1,0l0,0l0.1,0l0,0l0.1,0l0,0l0,0l0,0l0,0l0.1,0l0,0l0.1,0l0,0l0.1,0l0,0l0.1,0l0,0l0,0l0,0l0,0l0.1,0l0,0l0.1,0l0,0l0.1,0l0,0l0.1,0l0,0l0,0l0,0l0,0l0.1,0l0,0l0.1,0l0,0l0.1,0l0,0l0.1,0l0,0l0,0l0,0l0,0l0.1,0l0,0l0.1,0l0,0l0.1,0l0,0l0.1,0l0,0l0.2,0l0,0l0.1,0l0,0l0.1,0l0,0l0.1,0l0,0l0.9,-0.9l0,0l0,0zm-3.8,13.4c0.2,-3.1 0.9,-6.2 1.9,-9l0,0l0,0l0,0l0,0l0,0l0,0l0,0l0,0l0,0l0,0l0,0l0,0l0,0l0,0l0,0l0,0l0,0l0,0l0,0l0,0l0,0l0,0l0,0l0,0l0,0l0,0l0,0l0,0l0,0l0,0l0,0l0,0l0,0l0,0l0,0l0,0l0,0l0,0l0,0l0,0l0,0l0,0l0,0l0,0l0,0l0,0l0,0l0,0l0,0l0,0l0,0l0,0l0,0l0,0l0,0l0,0l0,0l0,0l0,0l0,0l0,0l0,0l0,0l0,0l0,0l0,0l0,0l0,0l0,0l0,0l0,0l0,0l0,0l0,0l0,0l0,0l0,0l0,0l0,0l0,0l0,0l0,0l0,0l0,0l0,0l0,0l0,0l0,0l0,0l0,0l0,0l0,0l0,0l0,0l0,0l0,0l0,0l0,0l0,0l0,0l0,0l0,0l0,0l0,0l0,0l0,0l0,0l0,0l0,0l0,0l0,0l0,0l0,0l0,0l0,0l0,0l0,0l0,0l0,0l0,0l0,0l0,0l0,0l0,0l0,0l0,0l0,0l-0.1,0l0,0l-0.1,0l0,0l-0.1,0l0,0l-0.1,0l0,0l-0.1,0l0,0l-0.1,0l0,0l-0.1,0l0,0l-0.1,0l0,0l-0.1,0l0,0l-0.1,0l0,0l-0.1,0l0,0l-0.1,0l0,0l-0.1,0l0,0l-0.1,0l0,0l-0.1,0l0,0l-0.1,0l0,0l-0.1,0l0,0l-0.1,0l0,0l-0.1,0l-0.1,0l0,0l-0.1,0l0,0l-0.1,0l0,0l-0.1,0l-0.1,0l0,0l-0.1,0l0,0l-0.1,0l0,0l-0.1,0l0,0l-0.1,0l0,0l-0.1,0l0,0l-0.1,0l0,0l-0.1,0l0,0l-0.1,0l0,0l-0.1,0l-0.1,0l0,0l-0.1,0l0,0l-0.1,0l-0.1,0l0,0l-3.3,0.6l-0.1,0l0,0l-0.1,0l0,0l-0.1,0l0,0l-0.1,0l0,0l-0.1,0l-0.1,0l0,0l-0.1,0l0,0l-0.1,0l0,0l-0.1,0l-0.1,0l0,0l-0.1,0l0,0l-0.1,0l0,0l-0.1,0l-0.1,0l-0.1,0l0,0l-0.1,0l0,0l-0.1,0l0,0l-0.1,0l-0.2,0l-0.1,0l-0.1,0l0,0l-0.1,0l-0.1,0l-0.1,0l-0.1,0l-0.1,0l-0.3,0l-0.1,0l-0.1,0l-0.3,0l0,0l-0.3,0l-0.2,0l-0.1,0l-0.3,0l0,0c-5.2,-0.1 -10.1,-0.7 -14.4,-1.8c-4.3,-1 -8,-2.5 -10.9,-4.2c-0.6,0.6 -1.2,1.1 -1.5,1.7c-0.5,0.7 -0.7,1.5 -0.7,2.2c0,1.6 1.1,3.2 3.1,4.6l0,0l0,0l0,0l0,0l0,0l0,0c0.1,0 0.2,0.1 0.2,0.1c0.3,0.2 0.6,0.4 0.9,0.6l0.1,0.1l0,0c0.2,0.1 0.4,0.2 0.5,0.3l0.1,0.1l0,0c0.1,0.1 0.3,0.2 0.4,0.2l0.1,0.1l0,0l0.1,0.1l0.1,0.1l0,0l0.1,0.1l0,0l0.1,0.1l0,0l0.1,0.1l0,0l0.1,0.1l0,0l0.1,0.1l0,0c0.1,0.1 0.3,0.1 0.5,0.2l0,0l0.1,0.1l0,0l0.1,0.1l0,0c0.2,0.1 0.3,0.1 0.5,0.2l0,0l0.1,0.1l0,0l0.2,0.1l0.2,0.1l0,0l0.2,0.1l0,0l0.2,0.1l0,0l0.2,0.1l0,0l0.2,0.1l0,0l0.2,0.1l0,0l0.2,0.1l0,0l0.2,0.1l0,0l0.7,-0.3l0,0l0.2,0.1l0,0l0.2,0.1l0,0l0.2,0.1l0,0l0.2,0.1l0,0l0.2,0.1l0,0l0.2,0.1l0,0l0.2,0.1l0,0l0.2,0.1l0,0l0.2,0.1l0,0l0.2,0.1l0,0l0.2,0.1l0,0l0.2,0.1l0,0l0.2,0.1l0,0l0.2,0.1l0,0l0.2,0.1l0,0l0.2,0.1l0,0l0.2,0.1l0,0l0.2,0.1l0,0l0.2,0.1l0,0l0.2,0.1l0,0l0.2,0.1l0.2,0l0,0l0.1,0l0.1,0l0.1,0l0.1,0l0,0l0.2,0l0,0l0.2,0l0,0l0.1,0l0.1,0l0.1,0l0.1,0l0,0l0.2,0l0,0l0.2,0l0.1,0l0.1,0l0.1,0l0.1,0l0,0l0.2,0l0,0l0.2,0l0.1,0l0.1,0l0.1,0l0.1,0l0.1,0l0,0l0.2,0l0,0l0.2,0l0.1,0l0.1,0l0.1,0l0.1,0l0.2,0l0,0l0.2,0l0,0l0.2,0l0.1,0l0.1,0l0.1,0l0.1,0l0.2,0l0,0l0.2,0l0,0l0.2,0l0.1,0l0.1,0l0.1,0l0.1,0l0.2,0l0.2,0l0,0l0.2,0l0.1,0l0.1,0l0.1,0l0.1,0l0.2,0l0,0l0.2,0l0,0l0.2,0l0.1,0l0.1,0l0.1,0l0.1,0l0.2,0l0,0l0.2,0l0,0l0.2,0l0.1,0l0.1,0l0.1,0l0.1,0l0.2,0l0,0l0.2,0l0,0l0.2,0l0.1,0l0.1,0l0.1,0l0.1,0l0.2,0l0,0l0.2,0l0,0l0.2,0l0.1,0l0.1,0l0.1,0l0.1,0l0.2,0l0,0l0.2,0l0,0l0.2,0l0.1,0l0.1,0l0.1,0l0.1,0l0.2,0l0.3,0l0.3,0l0.3,0l0.3,0l0.3,0l0.3,0l0.3,0l0,0l0.4,0l0,0l0.1,0l0.3,0l0,0l0.3,0l0,0l0,0l0.1,0l0.3,0l0.1,0l0.1,0l0.1,0l0,0l0.1,0l0,0l0.1,0l0,0l0.1,0l0,0l0.1,0l0,0l0.1,0l0,0l0.1,0l0,0l0.1,0l0.1,0l0,0l0.1,0l0.1,0l0,0l0.1,0l0.1,0l0,0l0.1,0l0.1,0l0,0l0.1,0l0,0l0.1,0l0,0l0.1,0l0,0l0.1,0l0,0l0.1,0l0,0l0.1,0l0,0l0.1,0l0.1,0l0,0l0.1,0l0,0l0.1,0l0,0l0.1,0l0,0l0.1,0l0,0l0.1,0l0,0l0.1,0l0,0l0.1,0l0,0l0.1,0l0,0l0.1,0l0,0l0.1,0l0,0l0.1,0l0.1,0l0,0l0.1,0l0,0l0.1,0l0,0l0.4,0l0,0l0.1,0l0,0l0.1,0l0,0l0.1,0l0,0l0.1,0l0.1,0l0,0l0.1,0l0,0l0.1,0l0.1,0l0,0l0.1,0l0,0l0.1,0l0,0l0.1,0l0,0l0.1,0l0,0l0.2,0l0,0l0.1,0l0,0l0.1,0l0,0l0.1,0l0,0l0.1,0l0,0l0.1,0l0,0l0,0l0,0l0,0l0,0l0,0l0,0l0,0l0,0l0.1,0l0,0l0,0l0,0l0,0l0,0l0,0l0,0l0,0l0,0l0,0l0,0l0,0l0,0l0,0l0,0l0,0l0,0l0,0l0,0l0.1,0l0,0l0,0l0,0l0,0l0,0l0,0l0,0l0,0l0,0l0,0l0,0l0,0l0.1,0l0,0l0,0c-0.5,0.4 0.1,0.4 0.7,0.3zm1.3,12.7c-0.7,-2.4 -1.1,-4.8 -1.3,-7.4l0,-0.1l0,-0.1l0,-0.1l0,-0.1l0,0l0,-0.1l0,-0.1l0,-0.1l0,-0.2l0,-0.1l0,-0.1l0,-0.1l0,-0.1l0,0l0,-0.1l0,0l0,0l0,0l0,0l0,0l0,0l0,0l0,0l0,0l0,0l0,0l0,0l-0.1,0l0,0l0,0l0,0l0,0l0,0l0,0l0,0l0,0l0,0l0,0l0,0l0,0l0,0l0,0l0,0l0,0l0,0l0,0l0,0l0,0l0,0l0,0l0,0l0,0l0,0l0,0l0,0l0,0l0,0l0,0l0,0l0,0l0,0l0,0l0,0l0,0l0,0l0,0l0,0l0,0l0,0l0,0l0,0l0,0l0,0l0,0l0,0l0,0l0,0l0,0l0,0l0,0l0,0l0,0l0,0l0,0l0,0l0,0l0,0l0,0l0,0l0,0l0,0l0,0l0,0l-0.1,0l0,0l0,0l0,0l0,0l0,0l0,0l0,0l0,0l0,0l0,0l0,0l0,0l0,0l0,0l0,0l0,0l0,0l0,0l0,0l0,0l0,0l-0.1,0l-0.1,0l-0.1,0l-0.1,0l-0.2,0l-0.1,0l-0.2,0l0,0l-0.1,0l-0.1,0l-0.1,0l0,0l-0.1,0l-0.1,0l-0.1,0l0,0l-0.1,0l-0.1,0l-0.2,0l-0.3,0l-0.1,0l-0.1,0l-0.1,0l-0.1,0l-0.2,0l-0.1,0l-0.1,0l-0.1,0l0,0l-0.1,0l-0.1,0l-0.1,0l-0.1,0l-0.3,0l-0.2,0l-0.1,0l-0.1,0l-0.1,0l0,0l-0.1,0l-0.1,0l-0.1,0l0,0l-0.1,0l-0.1,0l-0.1,0l-0.1,0l-0.1,0l-0.1,0l-0.1,0l-0.1,0l-0.1,0l-0.1,0l-0.1,0l-0.1,0l0,0l-0.1,0l-0.3,0l-0.1,0l-0.1,0l-0.3,0l0,0l-0.3,0l-0.2,0l-0.1,0l-0.3,0l0,0l-0.2,0l0,0l-0.2,0l0,0l-0.2,0l-0.1,0l-0.2,0l-0.1,0l-0.2,0l-0.1,0l-0.1,0l-0.1,0l-0.1,0l-0.2,0l-0.1,0l-0.2,0l-0.1,0l-0.2,0l0,0l-0.2,0l0,0l-0.2,0l0,0l-0.2,0l0,0l-0.2,0l-0.1,0l-0.2,0l-0.1,0l-0.1,0l-0.1,0l-0.1,0l-0.1,0l-0.1,0l-0.2,0l-0.1,0l-0.2,0l0,0l-0.2,0l0,0l-0.2,0l0,0l-0.2,0l0,0l-0.2,0l0,0l0,0l-0.2,0l-0.2,0l-0.1,0l-0.1,0l-0.1,0l-0.1,0l-0.1,0l-0.1,0l-0.2,0l-0.3,0l0,0l-0.2,0l0,0l-0.2,0l0,0l-0.2,0l0,0l-0.2,0l-0.1,0l-0.2,0l-0.1,0l0,0l-0.2,0l0,0l-0.1,0l-0.1,0l-0.1,0l-0.2,0l-0.2,0l0,0l-0.2,0l0,0l-0.2,0l0,0l-0.2,0l0,0l-0.2,0l0,0l-0.2,0l-0.1,0l-0.1,0l-0.1,0l0,0l-0.2,0l-0.1,0l-0.1,0l-0.1,0l-0.2,0l-0.1,0l-0.2,0l0,0l-0.2,0l0,0l-0.2,0l0,0l-0.2,0l0,0l-0.2,0l-0.1,0l-0.2,0l-0.1,0l-0.1,0l-0.1,0l-0.1,0l-0.1,0l0,0l-0.2,0l-0.1,0l-0.2,0l0,0l-0.2,0l0,0l-0.2,0c-4.3,-1 -8,-2.5 -10.9,-4.2c-0.6,0.6 -1.2,1.1 -1.5,1.7c-0.5,0.7 -0.7,1.5 -0.7,2.2c0,2.7 3,5.2 7.9,7.2c5.4,2.2 12.9,3.6 21.3,3.6c2,0 4,-0.1 5.9,-0.2c-1.2,-1.2 -0.1,-1.3 0.9,-1.5zm22.8,-39.3c0,0 -0.1,0 -0.1,0.1c-4.1,1.6 -7.8,4 -10.8,7.1c-1.9,1.9 -3.5,4 -4.8,6.3l0,0l-0.2,0.3l0,0l-0.3,0.3l0,0l-0.2,0.3l0,0.1l-0.1,0.2l0,0l0,0l0,0.1l-0.1,0.2l0,0l0,0l0,0.1l-0.1,0.2l0,0.1l0,0l0,0.1l0,0.1l0,0.1l0,0l0,0.1l0,0.1l0,0l0,0c-1.9,4.1 -3,8.6 -3,13.4l0,0l0,0l0,0.4l0,0.1l0,0l0,0.4l0,0l0,0c0,0.3 0,0.5 0,0.8l0,0c0.4,8 3.8,15.3 9.2,20.6c5.7,5.7 13.5,9.2 22.2,9.2c8.7,0 16.5,-3.5 22.2,-9.2c5.7,-5.7 9.2,-13.5 9.2,-22.2c0,-8.7 -3.5,-16.5 -9.2,-22.2c-5.7,-5.7 -13.5,-9.2 -22.2,-9.2c-4.4,0 -8.2,0.7 -11.7,2zm1.2,-9.6l0,4.9c3.2,-0.9 6.5,-1.4 10,-1.4c9.8,0 18.7,4 25.1,10.4c6.4,6.4 10.4,15.3 10.4,25.1c0,9.8 -4,18.7 -10.4,25.1c-6.4,6.4 -15.3,10.4 -25.1,10.4c-9.8,0 -18.7,-4 -25.1,-10.4c-3.2,-3.2 -5.8,-7 -7.6,-11.3c-1.4,0.2 -2.9,0.4 -4.4,0.5c-2,0.2 -4.1,0.2 -6.2,0.2c-8.9,0 -16.9,-1.5 -22.8,-3.9c-6.4,-2.6 -10.4,-6.5 -10.4,-11l0,-12.8l0,-12.9l0,-12.9c0,-4.4 4,-8.3 10.4,-11c5.9,-2.4 13.9,-3.9 22.8,-3.9c8.9,0 16.9,1.5 22.8,3.9c6.6,2.7 10.5,6.6 10.5,11z"/>
  <path id="svg_3" fill-rule="evenodd" fill="#FFE64C" d="m95.621914,61.2c0,1.7 -0.8,2.5 -2.3,2.5c-0.4,0 -1.4,-0.3 -3.2,-0.8c-1.2,-0.4 -2.3,-0.6 -3.5,-0.7l0,8.6c3,0.5 5.3,1.3 7.1,2.5c2,1.3 3,3.4 3,6.2c0,5.9 -4.6,8.9 -10,9.5l0,3.1c0,2.7 -4,2.7 -4,0l0,-3.1c-2.1,-0.1 -4.2,-0.5 -6.2,-1.2c-2.5,-0.8 -3.8,-1.8 -3.8,-2.8c0,-1.9 0.8,-2.8 2.3,-2.8c0.4,0 1.6,0.3 3.8,1c1.4,0.4 2.6,0.7 3.9,0.9l0,-9.3c-2.3,-0.3 -5.4,-1 -7.2,-2.5c-1.5,-1.2 -2.4,-3.1 -2.4,-5.2c0,-5.2 4.9,-8.6 9.6,-9.3l0,-3.2c0,-2.7 4,-2.7 4,0l0,3.1c2.5,-0.1 8.9,0.8 8.9,3.5zm6.2,29.1c9.5,-9.5 9.5,-24.8 0,-34.3c-9.5,-9.5 -24.8,-9.5 -34.3,0c-9.5,9.5 -9.5,24.8 0,34.3c9.5,9.5 24.8,9.5 34.3,0z" clip-rule="evenodd"/>
  <path id="svg_4" fill-rule="evenodd" fill="#FFE64C" d="m100.253117,101.833702l0,-56.399164c-23.3558,3.615331 -47.773227,15.18439 -47.773227,32.537979c0,10.122927 6.369764,15.907457 21.232545,19.522788l26.540681,4.338397z" clip-rule="evenodd"/>
  <path id="svg_5" fill-rule="evenodd" fill="#FFE64C" d="m86.5,75.4l0,8.6c2.4,-0.4 4.9,-1.7 4.9,-4.4c-0.1,-2.9 -2.2,-3.6 -4.9,-4.2z" clip-rule="evenodd"/>
  <path stroke="#00000e" id="svg_6" fill-rule="evenodd" fill="#FFE64C" d="m106.7,51.221914c-8.7,-8.7 -21.8,-11.6 -33.5,-7.1l-0.1,0.1c-4.1,1.6 -7.8,4 -10.8,7.1c-2.4,2.4 -4.2,4.9 -5.7,7.9c-6.2,12 -3.9,27 5.7,36.6c12.3,12.3 32.2,12.3 44.4,0c12.3,-12.5 12.3,-32.4 0,-44.6zm-22.2,-6.1c15.6,0 28.3,12.7 28.3,28.3c0,15.6 -12.7,28.3 -28.3,28.3c-15.6,0 -28.3,-12.7 -28.3,-28.3c0,-15.6 12.7,-28.3 28.3,-28.3z" clip-rule="evenodd"/>
  <path stroke="#00000e" id="svg_7" fill-rule="evenodd" fill="#FFE64C" d="m67.1,39.221914c6.4,-4.6 2.7,-9 -4.6,-12c-11.7,-4.8 -30.9,-4.8 -42.6,0c-7.1,3 -10.9,7.4 -4.7,11.9c0.1,0 0.2,0.1 0.3,0.2c6.1,4.4 17.4,6.1 26.1,6c8.4,0 19.4,-1.7 25.5,-6.1z" clip-rule="evenodd"/>
  <path stroke="#000000" id="svg_8" fill-rule="evenodd" fill="#ffe64c" d="m61.5,46.334948c-5.8,2.089965 -12.6,3.030449 -18.8,3.134948c-9.5,0.208997 -20.9,-1.462976 -28.3,-6.269895c-1.2,1.149481 -2.3,2.507958 -2.3,4.17993c0,1.880969 1.3,3.448442 3.3,5.015916c5.6,4.17993 16.4,6.269895 24.3,6.269895l6.2,-0.104498l7,-0.835986c2.1,-4.388927 5.1,-8.255362 8.6,-11.39031z" clip-rule="evenodd"/>
  <path stroke="#000000" id="svg_9" fill-rule="evenodd" fill="#ffe64c" d="m49.8,61.747231c-8.2,0.940456 -16.6,0.626971 -24.6,-1.358436c-4.3,-1.044951 -8,-2.612378 -10.9,-4.388795c-1.2,1.149446 -2.3,2.507883 -2.3,4.179804c0,1.671922 1.1,3.343843 3.1,4.806775c2.5,1.671922 3.8,2.403388 6.6,3.448339c7.1,2.507883 14.2,3.134853 21.7,3.030358l5.6,-0.41798c0.2,-3.239348 0.9,-6.478697 1.9,-9.40456l-0.5,0.104495l-0.2,0l-0.4,0z" clip-rule="evenodd"/>
  <path stroke="#191919" id="svg_10" fill-rule="evenodd" fill="#ffe64c" d="m45.078874,74.884645l-10.217143,-0.232959l-4.855672,-0.698878c-5.361471,-0.931838 -11.228741,-2.795513 -15.679774,-5.940464c-5.057992,5.125107 -1.112758,9.784294 5.66495,13.045726c8.396266,3.96031 20.434286,5.125107 30.752588,3.494391c-0.809279,-3.261431 -1.315078,-6.639343 -1.416238,-10.017254l-4.248713,0.349439z" clip-rule="evenodd"/>
 </g>
</svg>